…
isd_history

## # A tibble: 28,469 x 13
##      USAF  WBAN            STN_NAME  CTRY STATE  CALL    LAT    LON ELEV_M
##     <chr> <chr>               <chr> <chr> <chr> <chr>  <dbl>  <dbl>  <dbl>
##  1 010010 99999 JAN MAYEN(NOR-NAVY)    NO  <NA>  ENJA 70.933 -8.667    9.0
##  2 010014 99999          SORSTOKKEN    NO  <NA>  ENSO 59.792  5.341   48.8
##  3 010015 99999          BRINGELAND    NO  <NA>  <NA> 61.383  5.867  327.0
##  4 010016 99999         RORVIK/RYUM    NO  <NA>  <NA> 64.850 11.233   14.0
##  5 010017 99999               FRIGG    NO  <NA>  ENFR 59.980  2.250   48.0
##  6 010020 99999       VERLEGENHUKEN    NO  <NA>  <NA> 80.050 16.250    8.0
##  7 010030 99999            HORNSUND    NO  <NA>  <NA> 77.000 15.500   12.0
##  8 010040 99999       NY-ALESUND II    NO  <NA>  ENAS 78.917 11.933    8.0
##  9 010050 99999       ISFJORD RADIO    SV  <NA>  <NA> 78.067 13.633    9.0
## 10 010060 99999             EDGEOYA    NO  <NA>  <NA> 78.250 22.817   14.0
## # ... with 28,459 more rows, and 4 more variables: BEGIN <dbl>, END <dbl>,
## #   STNID <chr>, ELEV_M_SRTM_90m <dbl>
…
