…
``` r
names(countries)[2] <- "COUNTRY_NAME"

country_list <- dplyr::left_join(countries, countrycode::codelist,
                   by = c("FIPS" = "fips"))

print(country_list)
```

    ## # A tibble: 293 x 678
    ##    FIPS  COUNTRY_NAME   ar5    continent country.name.de country.name.de.…
    ##    <chr> <chr>          <chr>  <chr>     <chr>           <chr>            
    ##  1 AA    ARUBA          LAM    Americas  Aruba           "^(?!.*bonaire).…
    ##  2 AC    ANTIGUA AND B… LAM    Americas  Antigua und Ba… antigua          
    ##  3 AF    AFGHANISTAN    ASIA   Asia      Afghanistan     afghan           
    ##  4 AG    ALGERIA        MAF    Africa    Algerien        algerien         
    ##  5 AI    ASCENSION ISL… <NA>   <NA>      <NA>            <NA>             
    ##  6 AJ    AZERBAIJAN     EIT    Asia      Aserbaidschan   aserbaidsch      
    ##  7 AL    ALBANIA        EIT    Europe    Albanien        albanien         
    ##  8 AM    ARMENIA        EIT    Asia      Armenien        armenien         
    ##  9 AN    ANDORRA        OECD1… Europe    Andorra         andorra          
    ## 10 AO    ANGOLA         MAF    Africa    Angola          angola           
    ## # ... with 283 more rows, and 672 more variables: country.name.en <chr>,
    ## #   country.name.en.regex <chr>, cow.name <chr>, cowc <chr>, cown <int>,
    ## #   ecb <chr>, ecb.name <chr>, eu28 <chr>, eurocontrol_pru <chr>,
    ## #   eurocontrol_statfor <chr>, eurostat <chr>, eurostat.name <chr>,
    ## #   fao <int>, fao.name <chr>, fips.name <chr>, gaul <int>,
    ## #   genc.name <chr>, genc2c <chr>, genc3c <chr>, genc3n <chr>, icao <chr>,
    ## #   icao_region <chr>, imf <int>, ioc <chr>, ioc.name <chr>,
    ## #   iso.name.en <chr>, iso.name.fr <chr>, iso2c <chr>, iso3c <chr>,
    ## #   iso3n <int>, p4.name <chr>, p4c <chr>, p4n <int>, region <chr>,
…
There are unnecessary data in several columns. *GSODR* only requires
FIPS, name, and ISO codes to function.

``` r
country_list <- (country_list[, -c(3:14, 17:35)])

country_list
```

    ## # A tibble: 293 x 647
    ##    FIPS  COUNTRY_NAME eurocontrol_pru eurocontrol_sta… iso3n p4.name p4c  
    ##    <chr> <chr>        <chr>           <chr>            <int> <chr>   <chr>
    ##  1 AA    ARUBA        Southern Ameri… Mid-Atlantic       533 <NA>    <NA> 
    ##  2 AC    ANTIGUA AND… Southern Ameri… Mid-Atlantic        28 <NA>    <NA> 
    ##  3 AF    AFGHANISTAN  Asia            Asia/Pacific         4 Afghan… AFG  
    ##  4 AG    ALGERIA      Africa          North-Africa        12 Algeria ALG  
    ##  5 AI    ASCENSION I… <NA>            <NA>                NA <NA>    <NA> 
    ##  6 AJ    AZERBAIJAN   Asia            Other Europe        31 Azerba… AZE  
    ##  7 AL    ALBANIA      Eurocontrol     ESRA East            8 Albania ALB  
    ##  8 AM    ARMENIA      Eurocontrol     Other Europe        51 Armenia ARM  
    ##  9 AN    ANDORRA      <NA>            <NA>                20 <NA>    <NA> 
    ## 10 AO    ANGOLA       Africa          Southern-Africa     24 Angola  ANG  
    ## # ... with 283 more rows, and 640 more variables: p4n <int>, region <chr>,
    ## #   un <int>, un.name.ar <chr>, un.name.en <chr>, un.name.es <chr>,
    ## #   un.name.fr <chr>, un.name.ru <chr>, un.name.zh <chr>, unpd <int>,
    ## #   unpd.name <chr>, wb <chr>, wb_api.name <chr>, wb_api2c <chr>,
    ## #   wb_api3c <chr>, wb.name <chr>, wvs <int>, wvs.name <chr>,
    ## #   cldr.name.af <chr>, cldr.name.agq <chr>, cldr.name.ak <chr>,
    ## #   cldr.name.am <chr>, cldr.name.ar <chr>, cldr.name.ar_ly <chr>,
    ## #   cldr.name.ar_sa <chr>, cldr.name.as <chr>, cldr.name.asa <chr>,
    ## #   cldr.name.ast <chr>, cldr.name.az <chr>, cldr.name.az_cyrl <chr>,
…
