…
``` r
isd_history
```

    ## # A tibble: 28,202 x 13
    ##    USAF  WBAN  STN_NAME CTRY  STATE CALL    LAT    LON ELEV_M  BEGIN    END
    ##    <chr> <chr> <chr>    <chr> <chr> <chr> <dbl>  <dbl>  <dbl>  <int>  <int>
    ##  1 0082… 99999 WXPOD82… AF    <NA>  <NA>   33.0  65.6  1157.  2.01e7 2.01e7
    ##  2 0100… 99999 JAN MAY… NO    <NA>  ENJA   70.9  -8.67    9   1.93e7 2.02e7
    ##  3 0100… 99999 SORSTOK… NO    <NA>  ENSO   59.8   5.34   48.8 1.99e7 2.02e7
    ##  4 0100… 99999 BRINGEL… NO    <NA>  <NA>   61.4   5.87  327   1.99e7 2.01e7
    ##  5 0100… 99999 RORVIK/… NO    <NA>  <NA>   64.8  11.2    14   1.99e7 1.99e7
    ##  6 0100… 99999 FRIGG    NO    <NA>  ENFR   60.0   2.25   48   1.99e7 2.01e7
    ##  7 0100… 99999 VERLEGE… NO    <NA>  <NA>   80.0  16.2     8   1.99e7 2.02e7
    ##  8 0100… 99999 HORNSUND NO    <NA>  <NA>   77    15.5    12   1.99e7 2.02e7
    ##  9 0100… 99999 NY-ALES… NO    <NA>  ENAS   78.9  11.9     8   1.97e7 2.01e7
    ## 10 0100… 99999 ISFJORD… SV    <NA>  <NA>   78.1  13.6     9   1.93e7 2.01e7
    ## # ... with 28,192 more rows, and 2 more variables: STNID <chr>,
    ## #   ELEV_M_SRTM_90m <dbl>
…
