GSODR • GSODR
…
load(system.file("extdata", "country_list.rda", package = "GSODR"))
load(system.file("extdata", "isd_history.rda", package = "GSODR"))

station_locations <- left_join(isd_history, country_list,
                               by = c("CTRY" = "FIPS"))

# create data.frame for Australia only
Oz <- filter(station_locations, COUNTRY_NAME == "AUSTRALIA")

Oz

## # A tibble: 1,412 x 16
##      USAF  WBAN                      STN_NAME  CTRY STATE  CALL     LAT
##     <chr> <chr>                         <chr> <chr> <chr> <chr>   <dbl>
##  1 695023 99999           HORN ISLAND   (HID)    AS  <NA>  KQXC -10.583
##  2 749430 99999            AIDELAIDE RIVER SE    AS  <NA>  <NA> -13.300
##  3 749432 99999     BATCHELOR FIELD AUSTRALIA    AS  <NA>  <NA> -13.049
##  4 749438 99999          IRON RANGE AUSTRALIA    AS  <NA>  <NA> -12.700
##  5 749439 99999      MAREEBA AS/HOEVETT FIELD    AS  <NA>  <NA> -17.050
##  6 749440 99999                     REID EAST    AS  <NA>  <NA> -19.767
##  7 749441 99999  TOWNSVILLE AUSTRALIA/GARBUTT    AS  <NA>  ABTL -19.249
##  8 749442 99999                     WOODSTOCK    AS  <NA>  <NA> -19.600
##  9 749443 99999 JACKY JACKY AUSTRALIA/HIGGINS    AS  <NA>  <NA> -10.933
## 10 749455 99999            LAKE BUCHANAN WEST    AS  <NA>  <NA> -21.417
## # ... with 1,402 more rows, and 9 more variables: LON <dbl>, ELEV_M <dbl>,
## #   BEGIN <dbl>, END <dbl>, STNID <chr>, ELEV_M_SRTM_90m <dbl>,
## #   COUNTRY_NAME <chr>, iso2c <chr>, iso3c <chr>
…
Using the get_GSOD() Function in GSODR to Download a Single Station and Year

Now that we’ve seen where the reporting stations are located, we can download weather data from the station Toowoomba, Queensland, Australia for 2010 by using the STNID in the station parameter of get_GSOD().

tbar <- get_GSOD(years = 2010, station = "955510-99999")

## 
## Checking requested station file for availability on server

## 
## Downloading individual station files.

tbar

## # A tibble: 365 x 48
##      USAF  WBAN        STNID          STN_NAME  CTRY STATE  CALL    LAT
##     <chr> <chr>        <chr>             <chr> <chr> <chr> <chr>  <dbl>
##  1 955510 99999 955510-99999 TOOWOOMBA AIRPORT    AS  <NA>  <NA> -27.55
##  2 955510 99999 955510-99999 TOOWOOMBA AIRPORT    AS  <NA>  <NA> -27.55
##  3 955510 99999 955510-99999 TOOWOOMBA AIRPORT    AS  <NA>  <NA> -27.55
##  4 955510 99999 955510-99999 TOOWOOMBA AIRPORT    AS  <NA>  <NA> -27.55
##  5 955510 99999 955510-99999 TOOWOOMBA AIRPORT    AS  <NA>  <NA> -27.55
##  6 955510 99999 955510-99999 TOOWOOMBA AIRPORT    AS  <NA>  <NA> -27.55
##  7 955510 99999 955510-99999 TOOWOOMBA AIRPORT    AS  <NA>  <NA> -27.55
##  8 955510 99999 955510-99999 TOOWOOMBA AIRPORT    AS  <NA>  <NA> -27.55
##  9 955510 99999 955510-99999 TOOWOOMBA AIRPORT    AS  <NA>  <NA> -27.55
## 10 955510 99999 955510-99999 TOOWOOMBA AIRPORT    AS  <NA>  <NA> -27.55
## # ... with 355 more rows, and 40 more variables: LON <dbl>, ELEV_M <dbl>,
## #   ELEV_M_SRTM_90m <dbl>, BEGIN <dbl>, END <dbl>, YEARMODA <chr>,
## #   YEAR <chr>, MONTH <chr>, DAY <chr>, YDAY <dbl>, TEMP <dbl>,
## #   TEMP_CNT <int>, DEWP <dbl>, DEWP_CNT <int>, SLP <dbl>, SLP_CNT <int>,
## #   STP <dbl>, STP_CNT <int>, VISIB <dbl>, VISIB_CNT <int>, WDSP <dbl>,
## #   WDSP_CNT <int>, MXSPD <dbl>, GUST <dbl>, MAX <dbl>, MAX_FLAG <chr>,
## #   MIN <dbl>, MIN_FLAG <chr>, PRCP <dbl>, PRCP_FLAG <chr>, SNDP <dbl>,
## #   I_FOG <int>, I_RAIN_DRIZZLE <int>, I_SNOW_ICE <int>, I_HAIL <int>,
## #   I_THUNDER <int>, I_TORNADO_FUNNEL <int>, EA <dbl>, ES <dbl>, RH <dbl>
…
The database file isd_history.rda can be located on your local system by using the following command, paste0(.libPaths(), "/GSODR/extdata")[1], unless you have specified another location for library installations and installed GSODR there, in which case it would still be in GSODR/extdata.

Checking NCEI’s GSOD Station Data Inventory

GSODR provides a function, get_inventory() to retrieve an inventory of the number of weather observations by station-year-month for the beginning of record through to current.

Following is an example of how to retreive the inventory and check a station in Toowoomba, Queensland, Australia, which was used in an earlier example.

inventory <- get_inventory()

## THIS INVENTORY SHOWS THE NUMBER OF WEATHER OBSERVATIONS BY STATION-YEAR-MONTH FOR BEGINNING OF RECORD THROUGH OCTOBER 2017.  THE DATABASE CONTINUES TO BE UPDATED AND ENHANCED, AND THIS INVENTORY WILL BE  UPDATED ON A REGULAR BASIS.

inventory

## # A tibble: 616,652 x 14
##           STNID  YEAR   JAN   FEB   MAR   APR   MAY   JUN   JUL   AUG
##           <chr> <int> <int> <int> <int> <int> <int> <int> <int> <int>
##  1 007005-99999  2012    18     0     0     0     0     0     0     0
##  2 007011-99999  2012   771     0   183     0     0     0   142    13
##  3 007018-99999  2013     0     0     0     0     0     0   710     0
##  4 007025-99999  2012    21     0     0     0     0     0     0     0
##  5 007026-99999  2012     0     0     0     0     0     0   367     0
##  6 007026-99999  2014     0     0     0     0     0     0   180     0
##  7 007026-99999  2016     0     0     0     0     0   794     0     0
##  8 007026-99999  2017     0   914  2626   380   277   406  1230  1009
##  9 007034-99999  2012     0     0     0     0     0     0     0     0
## 10 007037-99999  2012     0     0     0     0     0     0   830    35
## # ... with 616,642 more rows, and 4 more variables: SEP <int>, OCT <int>,
## #   NOV <int>, DEC <int>
…
