…
    See also

    reformat_GSOD

    Examples

# Download weather station for Toowoomba, Queensland for 2010
t <- get_GSOD(years = 2010, station = "955510-99999")
#> |======================================================|100% ~0 s remaining     

# Download data for Philippines for year 2010 with a maximum of five missing
# days per station allowed.

get_GSOD(years = 2010, country = "Philippines", max_missing = 5)
#> # A tibble: 4,709 x 48
#>    USAF  WBAN  STNID STN_NAME CTRY  STATE CALL    LAT   LON ELEV_M
#>    <chr> <chr> <chr> <chr>    <chr> <chr> <chr> <dbl> <dbl>  <dbl>
#>  1 9822… 99999 9822… VIGAN    RP    <NA>  RPUQ   17.6  120.    4.9
#>  2 9822… 99999 9822… VIGAN    RP    <NA>  RPUQ   17.6  120.    4.9
#>  3 9822… 99999 9822… VIGAN    RP    <NA>  RPUQ   17.6  120.    4.9
#>  4 9822… 99999 9822… VIGAN    RP    <NA>  RPUQ   17.6  120.    4.9
#>  5 9822… 99999 9822… VIGAN    RP    <NA>  RPUQ   17.6  120.    4.9
#>  6 9822… 99999 9822… VIGAN    RP    <NA>  RPUQ   17.6  120.    4.9
#>  7 9822… 99999 9822… VIGAN    RP    <NA>  RPUQ   17.6  120.    4.9
#>  8 9822… 99999 9822… VIGAN    RP    <NA>  RPUQ   17.6  120.    4.9
#>  9 9822… 99999 9822… VIGAN    RP    <NA>  RPUQ   17.6  120.    4.9
#> 10 9822… 99999 9822… VIGAN    RP    <NA>  RPUQ   17.6  120.    4.9
#> # ... with 4,699 more rows, and 38 more variables: ELEV_M_SRTM_90m <dbl>,
#> #   BEGIN <int>, END <int>, YEARMODA <date>, YEAR <chr>, MONTH <chr>,
#> #   DAY <chr>, YDAY <dbl>, TEMP <dbl>, TEMP_CNT <int>, DEWP <dbl>,
#> #   DEWP_CNT <int>, SLP <dbl>, SLP_CNT <int>, STP <dbl>, STP_CNT <int>,
#> #   VISIB <dbl>, VISIB_CNT <int>, WDSP <dbl>, WDSP_CNT <int>, MXSPD <dbl>,
#> #   GUST <dbl>, MAX <dbl>, MAX_FLAG <chr>, MIN <dbl>, MIN_FLAG <chr>,
#> #   PRCP <dbl>, PRCP_FLAG <chr>, SNDP <dbl>, I_FOG <int>, I_RAIN_DRIZZLE <int>,
#> #   I_SNOW_ICE <int>, I_HAIL <int>, I_THUNDER <int>, I_TORNADO_FUNNEL <int>,
#> #   EA <dbl>, ES <dbl>, RH <dbl>

# Download global GSOD data for agroclimatology work for years 2010 and 2011

get_GSOD(years = 2010:2011, agroclimatology = TRUE)
#> # A tibble: 6,507,032 x 48
#>    USAF  WBAN  STNID STN_NAME CTRY  STATE CALL    LAT   LON ELEV_M
#>    <chr> <chr> <chr> <chr>    <chr> <chr> <chr> <dbl> <dbl>  <dbl>
#>  1 0082… 99999 0082… WXPOD82… AF    <NA>  <NA>   33.0  65.6  1157.
#>  2 0082… 99999 0082… WXPOD82… AF    <NA>  <NA>   33.0  65.6  1157.
#>  3 0082… 99999 0082… WXPOD82… AF    <NA>  <NA>   33.0  65.6  1157.
#>  4 0082… 99999 0082… WXPOD82… AF    <NA>  <NA>   33.0  65.6  1157.
#>  5 0082… 99999 0082… WXPOD82… AF    <NA>  <NA>   33.0  65.6  1157.
#>  6 0082… 99999 0082… WXPOD82… AF    <NA>  <NA>   33.0  65.6  1157.
#>  7 0082… 99999 0082… WXPOD82… AF    <NA>  <NA>   33.0  65.6  1157.
#>  8 0082… 99999 0082… WXPOD82… AF    <NA>  <NA>   33.0  65.6  1157.
#>  9 0082… 99999 0082… WXPOD82… AF    <NA>  <NA>   33.0  65.6  1157.
#> 10 0082… 99999 0082… WXPOD82… AF    <NA>  <NA>   33.0  65.6  1157.
#> # ... with 6,507,022 more rows, and 38 more variables: ELEV_M_SRTM_90m <dbl>,
#> #   BEGIN <int>, END <int>, YEARMODA <date>, YEAR <chr>, MONTH <chr>,
#> #   DAY <chr>, YDAY <dbl>, TEMP <dbl>, TEMP_CNT <int>, DEWP <dbl>,
#> #   DEWP_CNT <int>, SLP <dbl>, SLP_CNT <int>, STP <dbl>, STP_CNT <int>,
#> #   VISIB <dbl>, VISIB_CNT <int>, WDSP <dbl>, WDSP_CNT <int>, MXSPD <dbl>,
#> #   GUST <dbl>, MAX <dbl>, MAX_FLAG <chr>, MIN <dbl>, MIN_FLAG <chr>,
#> #   PRCP <dbl>, PRCP_FLAG <chr>, SNDP <dbl>, I_FOG <int>, I_RAIN_DRIZZLE <int>,
#> #   I_SNOW_ICE <int>, I_HAIL <int>, I_THUNDER <int>, I_TORNADO_FUNNEL <int>,
#> #   EA <dbl>, ES <dbl>, RH <dbl>
…
